{
  "popupDesc": {
    "message": "Panlatin romanization and detailing",
    "description": "two usages, in popup and in manifest"
  },
  "popupDescTitle": {
    "message": "Display non-Latin texts with Latin letters and add pronouncing details",
    "description": "two usages, in popup and in manifest"
  },
  "yesLoc": {
    "message": "yes"
  },
  "noLoc": {
    "message": "no"
  },
  "defaultGenericId": {
    "message": "default"
  },
  "disableGenericId": {
    "message": "Disable"
  },
  "enableGenericId": {
    "message": "Enable"
  },
  "languageGenericId": {
    "message": "Language",
    "description":"used several times by reference"
  },
  "showDictionariesGenericId": {
    "message": "Dictionaries..."
  },
  "showDictionariesGenericIdTitle": {
    "message": "Show dictionaries for the current language"
  },
  "pageLanguageLabelId": {
    "message": "Page language",
    "description":"the first text in popup.html"
  },
  "pageLanguageLabelIdTitle": {
    "message": "Page language, as defined by page itself or by the rules"
  },
  "languageStatusLabelId": {
    "message": "@@languageGenericId"
  },
  "disabledSpanId": {
    "message": "disabled"
  },
  "enableLanguageButtonId": {
    "message": "@@enableGenericId"
  },
  "enabledSpanId": {
    "message": "enabled"
  },
  "disableLanguageButtonId": {
    "message": "@@disableGenericId"
  },
  "changePageLangButtonId": {
    "message": "Change..."
  },
  "changePageLangButtonIdTitle": {
    "message": "Correct the language for this page or site"
  },
  "repeatTranslitId": {
    "message": "Redo"
  },
  "repeatTranslitIdTitle": {
    "message": "Repeat the romanization to process new texts that were added after loading"
  },
  "optionsId": {
    "message": "Options..."
  },
  "optionsIdTitle": {
    "message": "Enable or disable language and select variants"
  },
  "showDictionariesButtonId": {
    "message": "@@showDictionariesGenericId"
  },
  "showDictionariesButtonIdTitle": {
    "message": "@@showDictionariesGenericIdTitle"
  },
  "addNewRuleLabelId": {
    "message": "Add new rule"
  },
  "addDetailedRuleLabelId": {
    "message": "Add detailed rule"
  },
  "editRuleLangLabelId": {
    "message": "Change rule language"
  },
  "existingRuleLabelId": {
    "message": "Existing rule"
  },
  "back1ButtonId": {
    "message": "Back"
  },
  "back1ButtonIdTitle": {
    "message": "Back to the initial popup"
  },
  "addDetailedRuleButtonId": {
    "message": "Add..."
  },
  "addDetailedRuleButtonIdTitle": {
    "message": "@@addDetailedRuleLabelId"
  },
  "changeRuleLangButtonId": {
    "message": "Change..."
  },
  "changeRuleLangButtonIdTitle": {
    "message": "@@editRuleLangLabelId"
  },
  "deleteRuleButtonId": {
    "message": "Delete"
  },
  "deleteRuleButtonIdTitle": {
    "message": "Delete this rule"
  },
  "disabledAddressLabelId": {
    "message": "Disabled modifying at address"
  },
  "enabledAddressLabelId": {
    "message": "Enabled modifying at address using language"
  },
  "ruleLangInputId": {
    "message": "Enter the language abbreviation"
  },
  "back2ButtonId": {
    "message": "@@back1ButtonId"
  },
  "back2ButtonIdTitle": {
    "message": "@@back1ButtonIdTitle"
  },
  "doChangeRuleLangButtonId": {
    "message": "Change"
  },
  "doChangeRuleLangButtonIdTitle": {
    "message": "@@ChangeRuleLangButtonIdTitle"
  },
  "shortenAddressButtonId": {
    "message": "Shorten"
  },
  "shortenAddressButtonIdTitle": {
    "message": "Shorten the address, the rule will affect more pages"
  },
  "extendAddressButtonId": {
    "message": "Extend"
  },
  "extendAddressButtonIdTitle": {
    "message": "Extend the address, the rule will affect less pages"
  },
  "newRuleLabelId": {
    "message": "New rule:"
  },
  "back3ButtonId": {
    "message": "@@back1ButtonId"
  },
  "back3ButtonIdTitle": {
    "message": "@@back1ButtonIdTitle"
  },
  "addAddressRuleButtonId": {
    "message": "Add"
  },
  "addAddressRuleButtonIdTitle": {
    "message": "Add the address rule for selecting language"
  },
  "optionsHtmlTitle": {
    "message": "Panlatin options",
    "description": "the first text in options.html"
  },
  "languagesLabelId": {
    "message": "Languages:"
  },
  "enableNonLatinLangsButtonId": {
    "message": "Enable All non-Latin"
  },
  "enableNonLatinLangsButtonIdTitle": {
    "message": "Enable conversion for all the languages that don't use Latin script"
  },
  "enableLatinLangsButtonId": {
    "message": "Enable All Latin"
  },
  "enableLatinLangsButtonIdTitle": {
    "message": "Enable conversion for all the languages that use Latin script"
  },
  "disableLangsButtonId": {
    "message": "Disable All"
  },
  "disableLangsButtonIdTitle": {
    "message": "Disable conversion for all the languages; this switches off all the changes"
  },
  "languagesBoldIdTitle": {
    "message": "Languages with enabled conversion are shown in bold"
  },
  "showingExamplesTitleId": {
    "message": "Showing conversion examples while selecting language:"
  },
  "detailOnClickTitleId": {
    "message": "Clicking shows translation from dictionary:"
  },
  "colorStyleLabelId": {
    "message": "Color style with translation:",
    "description": "CSS style of text"
  },
  "colorStyleLabelIdTitle": {
    "message": "Style of converted texts when translation is also given"
  },
  "colorStylePlainIdTitle": {
    "message": "Converted text has default background"
  },
  "colorStylePlainId": {
    "message": "plain"
  },
  "colorStyleLightIdTitle": {
    "message": "Converted text has light background"
  },
  "colorStyleLightId": {
    "message": "light"
  },
  "colorStyleDarkIdTitle": {
    "message": "Converted text has dark background"
  },
  "colorStyleDarkId": {
    "message": "dark"
  },
  "skippedTagsLabelId": {
    "message": "Html tags to be skipped"
  },
  "skippedTagsIdTitle": {
    "message": "Enter one or more comma-separated tags that are not converted, e.g. pre, code"
  },
  "languageCodeLabelId": {
    "message": "@@languageGenericId"
  },
  "showDictButtonId": {
    "message": "@@showDictionariesGenericId"
  },
  "showDictButtonIdTitle": {
    "message": "@@showDictionariesGenericIdTitle"
  },
  "conversionLabelId": {
    "message": "Conversion:"
  },
  "conversionLabelIdTitle": {
    "message": "Languages with enabled conversion are listed above in bold"
  },
  "enabled_conversion": {
    "message": "enabled",
    "description": "the adjective after 'conversion:' (conversionLabelId), suitable gender"
  },
  "disabled_conversion": {
    "message": "disabled",
    "description": "the adjective after 'conversion:' (conversionLabelId), suitable gender"
  },
  "systemTitleId": {
    "message": "System"
  },
  "systemTitleIdTitle": {
    "message": "Select the conversion system"
  },
  "systemNameDescDivIdTitle": {
    "message": "Name and description of the selected system"
  },
  "systemDescLabelId": {
    "message": "System description"
  },
  "systemDescValue": {
    "message": "",
    "description": "not used to produce strings, it's here to find easier the .js code that uses next value(s)"
  },
  "systemDescValue_zh_pinyin": {
    "message": "Standard Chinese romanization, tones marked with diacritics, e.g. Běijīng, Zhōngguó",
    "description": "if nonempty, text to display for specific conversion system"
  },
  "surfaceLabelId": {
    "message": "Position and translation:",
    "description": "position of word relative to another word, above or default (afterwards)"
  },
  "surfaceLabelIdTitle": {
    "message": "Select the display of converted and native texts"
  },
  "surfacePlainDefaultIdTitle": {
    "message": "#multiline"
  },
  "surfacePlainDefaultIdTitle1": {
    "message": "For most languages: only converted text is shown."
  },
  "surfacePlainDefaultIdTitle2": {
    "message": "For logographic languages like Chinese or Japanese: converted word is shown after the native word."
  },
  "surfacePlainDefaultId": {
    "message": "@@defaultGenericId"
  },
  "surfaceDictAboveIdTitle": {
    "message": "Converted text is shown above the native text, translation is shown for some languages"
  },
  "surfaceDictAboveId": {
    "message": "above (with translation)"
  },
  "surfaceDictAfterIdTitle": {
    "message": "Converted text is shown after the native text, translation is shown for some languages"
  },
  "surfaceDictAfterId": {
    "message": "after (with translation)"
  },
  "languageScriptLabelId": {
    "message": "Text fragments in script"
  },
  "fragmentsNotConvertedId": {
    "message": "are not converted"
  },
  "convertFragmentsIdTitle": {
    "message": "Convert fragments that are in this script"
  },
  "convertFragmentsId": {
    "message": "@@enableGenericId"
  },
  "fragmentValueLabelId": {
    "message": "are understood to be in language"
  },
  "disableConvertFragmentsIdTitle": {
    "message": "Disable conversion"
  },
  "disableConvertFragmentsId": {
    "message": "@@disableGenericId"
  },
  "textButtonsLabelId": {
    "message": "Text example and converting"
  },
  "textClearId": {
    "message": "Clear"
  },
  "textClearIdTitle": {
    "message": "Clear both text windows, native and converted"
  },
  "showNativeUnicodeId": {
    "message": "Unicode"
  },
  "showNativeUnicodeIdTitle": {
    "message": "Show Unicode character numbers"
  },
  "nativeDivId": {
    "message": "Native text:"
  },
  "textNativeIdTitle": {
    "message": "Enter a native text or click a conversion system"
  },
  "convertedId": {
    "message": "Converted text:"
  },
  "textConvertedIdTitle": {
    "message": "Enter a converted text or click a conversion system"
  },
  "dictionaryHtmlTitle": {
    "message": "Panlatin Dictionaries",
    "description": "the first text in dictionaries.html"
  },
  "panlatinDictLabelId": {
    "message": "@@dictionaryHtmlTitle"
  },
  "dictionariesHeadingId": {
    "message": "Dictionaries"
  },
  "dictHeaderNameId": {
    "message": "Name"
  },
  "dictHeaderDescriptionId": {
    "message": "Description"
  },
  "dictHeaderFormatId": {
    "message": "Format"
  },
  "dictHeaderEnabledId": {
    "message": "Enabled"
  },
  "dictHeaderLoadingId": {
    "message": "Loading"
  },
  "dictHeaderMoveUpId": {
    "message": "Move up"
  },
  "dictHeaderMoveDownId": {
    "message": "Move down"
  },
  "dictHeaderOperationId": {
    "message": "Unload, Disable or Enable"
  },
  "dictNameBuiltinLoc": {
    "message": "built-in"
  },
  "dictNameCustomLoc": {
    "message": "custom"
  },
  "dictCmdUpLoc": {
    "message": "Up"
  },
  "dictCmdDownLoc": {
    "message": "Down"
  },
  "dictCmdEnableLoc": {
    "message": "@@enableGenericId"
  },
  "dictCmdDisableLoc": {
    "message": "@@disableGenericId"
  },
  "dictCmdUnloadLoc": {
    "message": "Unload"
  },
  "dictLoadingLoc": {
    "message": "#multiline"
  },
  "dictLoadingLoc1": {
    "message": "Not yet started"
  },
  "dictLoadingLoc2": {
    "message": "Waiting for data"
  },
  "dictLoadingLoc3": {
    "message": "Error"
  },
  "dictLoadingLoc4": {
    "message": "Finished"
  },
  "loadDictLabelId": {
    "message": "Load dictionary"
  },
  "dictDescriptionId": {
    "message": "Description"
  },
  "dictDescInputId": {
    "message": "Enter the dictionary description"
  },
  "dictFormatLabelId": {
    "message": "Format"
  },
  "dictFormatLabelIdTitle": {
    "message": "The dictionary format"
  },
  "dictSelectFileId": {
    "message": "Select file"
  },
  "clickHereToLoadLabelId": {
    "message": "Click here to load..."
  },
  "customDictEditorLabelId": {
    "message": "Custom Dictionary"
  },
  "deleteAllCustomButtonId": {
    "message": "Delete all"
  },
  "deleteAllCustomButtonIdTitle": {
    "message": "Delete all the entries from the custom dictionary"
  },
  "editCustomButtonId": {
    "message": "Edit"
  },
  "editCustomButtonIdTitle": {
    "message": "Edit the custom dictionary as plain text in a box"
  },
  "cancelCustomChangesButtonId": {
    "message": "Cancel"
  },
  "cancelCustomChangesButtonIdTitle": {
    "message": "Cancel the changes to the custom dictionary, show table again"
  },
  "saveCustomChangesButtonId": {
    "message": "Save"
  },
  "saveCustomChangesButtonIdTitle": {
    "message": "Save the changes to the custom dictionary, show table again"
  },
  "dictEditorTextAreaLabelId": {
    "message": "Custom entries shown as text"
  },
  "dictColumnLoc": {
    "message": "",
    "description": "not used to produce strings, it's here to find easier the .js code that uses next value(s)"
  },
  "dictColumnLoc_zh_1_head": {
    "message": "Traditional"
  },
  "dictColumnLoc_zh_1_desc": {
    "message": "The word in traditional characters"
  },
  "dictColumnLoc_zh_2_head": {
    "message": "Simplified"
  },
  "dictColumnLoc_zh_2_desc": {
    "message": "The word in simplified characters"
  },
  "dictColumnLoc_zh_3_head": {
    "message": "Pīnyīn"
  },
  "dictColumnLoc_zh_3_desc": {
    "message": "Pronunciation in pinyin, tones marked with diacritics, e.g. sān or hándà"
  },
  "dictColumnLoc_zh_4_head": {
    "message": "Translations"
  },
  "dictColumnLoc_zh_4_desc": {
    "message": "Translations, senses separated with slash (/)"
  },
  "deleteEntryButtonId": {
    "message": "Delete",
    "description": "added by program"
  },
  "deleteEntryButtonIdTitle": {
    "message": "Delete the entry from the dictionary",
    "description": "added by program"
  },
  "addEntryButtonId": {
    "message": "Add",
    "description": "added by program"
  },
  "addEntryButtonIdTitle": {
    "message": "Add the entry to the dictionary",
    "description": "added by program"
  }
}
